<?xml version="1.0" encoding="utf-8"?>
<!-- Generator: Adobe Illustrator 25.2.2, SVG Export Plug-In . SVG Version: 6.00 Build 0)  -->
<svg version="1.1" id="Livello_1" xmlns="http://www.w3.org/2000/svg" xmlns:xlink="http://www.w3.org/1999/xlink" x="0px" y="0px"
	 viewBox="0 0 399 113.6" style="enable-background:new 0 0 399 113.6;" xml:space="preserve">
<style type="text/css">
	.st0{fill:#FFFFFF;}
	.st1{fill:#020303;}
	.st2{fill:#E20E17;}
	.st3{fill:#B4B4B4;}
</style>
<g>
	<path class="st0" d="M61,17.9c-6.9-0.5-13.9-0.7-15.1-0.7c-1.2,0-8.4,0.2-15.3,0.8c-6.9,0.6-13.5,1.6-13.7,1.6l0,58.4
		c0,0,8.7,1.9,16,6.4c7.3,4.6,13.1,11.9,13.1,11.9c0.1-0.2,4.9-6.3,11-10.9c6.1-4.5,13.5-6.8,18.5-7.4c0-19.6,0-39,0.1-58.6
		C74.7,19.3,67.9,18.5,61,17.9z"/>
	<g>
		<g>
			<path class="st1" d="M388.7,10.3c0,1.1-0.4,2.1-1.2,2.9c-0.8,0.8-1.7,1.2-2.8,1.2c-1.1,0-2.1-0.4-2.8-1.2
				c-0.8-0.8-1.2-1.7-1.2-2.9c0-1.1,0.4-2.1,1.2-2.8c0.8-0.8,1.7-1.2,2.8-1.2c1.1,0,2.1,0.4,2.8,1.2C388.3,8.2,388.7,9.2,388.7,10.3
				L388.7,10.3z M384.6,6.8c-1,0-1.8,0.3-2.4,1c-0.7,0.7-1,1.5-1,2.4c0,1,0.3,1.8,1,2.5c0.7,0.7,1.5,1,2.4,1c1,0,1.8-0.3,2.4-1
				c0.7-0.7,1-1.5,1-2.5c0-1-0.3-1.8-1-2.4C386.4,7.1,385.6,6.8,384.6,6.8L384.6,6.8z M384.6,8c0.5,0,0.9,0.1,1.2,0.2
				c0.5,0.2,0.7,0.6,0.7,1.1c0,0.4-0.1,0.7-0.4,0.9c-0.2,0.1-0.4,0.2-0.6,0.2c0.3,0.1,0.6,0.2,0.8,0.4c0.2,0.2,0.2,0.5,0.2,0.7v0.3
				c0,0.1,0,0.2,0,0.3c0,0.1,0,0.2,0,0.2l0,0.1h-0.7c0,0,0,0,0,0c0,0,0,0,0-0.1l0-0.1v-0.3c0-0.5-0.1-0.8-0.4-1
				c-0.2-0.1-0.4-0.1-0.9-0.1h-0.6v1.7H383V8H384.6z M385.7,9.4c0-0.3-0.1-0.5-0.3-0.6c-0.2-0.1-0.5-0.2-0.9-0.2h-0.7v1.6h0.7
				c0.3,0,0.6,0,0.7-0.1C385.5,10,385.7,9.7,385.7,9.4L385.7,9.4z"/>
			<g>
				<path class="st1" d="M106,18.1v7.7c-3.1,0-5,0.1-5.5,0.4c-0.6,0.3-0.8,1.1-0.8,2.5v1.6h6.4v7.9h-3.6v40.8H87.2V38.2h-3.1v-7.9
					h3.1c0-3.3,0.1-5.5,0.3-6.6c0.2-1.1,0.8-2.1,1.7-3c0.9-0.9,2.1-1.5,3.7-2c1.6-0.5,4.1-0.7,7.5-0.7H106z"/>
				<path class="st1" d="M122.5,48.4h-14.2v-3.3c0-3.8,0.4-6.8,1.3-8.9c0.9-2.1,2.7-3.9,5.4-5.5c2.7-1.6,6.2-2.4,10.4-2.4
					c5.1,0,9,0.9,11.6,2.7c2.6,1.8,4.2,4,4.7,6.7c0.5,2.6,0.8,8.1,0.8,16.3v25h-14.8v-4.4c-0.9,1.8-2.1,3.1-3.6,4
					c-1.5,0.9-3.2,1.3-5.2,1.3c-2.7,0-5.1-0.7-7.3-2.2c-2.2-1.5-3.3-4.8-3.3-9.8v-4.1c0-3.7,0.6-6.3,1.8-7.6
					c1.2-1.4,4.1-2.9,8.8-4.7c5-2,7.6-3.3,8-3.9c0.4-0.7,0.5-2.1,0.5-4.1c0-2.6-0.2-4.3-0.6-5.1c-0.4-0.8-1-1.2-1.9-1.2
					c-1,0-1.7,0.3-1.9,1c-0.2,0.7-0.4,2.4-0.4,5.2V48.4z M127.3,55.2c-2.4,1.8-3.8,3.3-4.2,4.5c-0.4,1.2-0.6,2.9-0.6,5.2
					c0,2.6,0.2,4.2,0.5,5c0.3,0.8,1,1.1,2,1.1c1,0,1.6-0.3,1.9-0.9c0.3-0.6,0.4-2.1,0.4-4.6V55.2z"/>
				<path class="st1" d="M181.2,47.9h-14.3v-5.7c0-2-0.2-3.4-0.5-4.1c-0.3-0.7-0.9-1.1-1.8-1.1c-0.9,0-1.5,0.3-1.8,0.9
					c-0.3,0.6-0.4,2-0.4,4.2v23.5c0,1.8,0.2,3.1,0.7,4c0.4,0.9,1.1,1.3,2,1.3c1,0,1.7-0.5,2.1-1.4c0.4-0.9,0.5-2.7,0.5-5.3v-5.9
					h13.5c0,4-0.2,7-0.4,9c-0.3,2-1.1,4-2.5,6.1c-1.4,2.1-3.3,3.7-5.5,4.7c-2.3,1.1-5.1,1.6-8.5,1.6c-4.3,0-7.7-0.7-10.2-2.2
					c-2.5-1.5-4.3-3.5-5.3-6.2c-1-2.6-1.6-6.4-1.6-11.3V46.1c0-4.2,0.4-7.4,1.3-9.6c0.9-2.2,2.7-4.1,5.4-5.8
					c2.8-1.7,6.2-2.5,10.1-2.5c4,0,7.3,0.8,10.1,2.5c2.8,1.7,4.7,3.8,5.6,6.3C180.8,39.6,181.2,43.2,181.2,47.9z"/>
				<path class="st1" d="M201.4,18.1V26h-15.6v-7.9H201.4z M201.4,29.1v49.9h-15.6V29.1H201.4z"/>
				<path class="st1" d="M222.4,18.1v60.8h-15.6V18.1H222.4z"/>
				<path class="st1" d="M262.3,54.9h-19.6v10.8c0,2.2,0.2,3.7,0.5,4.3c0.3,0.7,1,1,1.9,1c1.2,0,1.9-0.4,2.3-1.3
					c0.4-0.9,0.6-2.5,0.6-5v-6.6h14.4v3.7c0,3.1-0.2,5.4-0.6,7.1c-0.4,1.7-1.3,3.4-2.7,5.3c-1.4,1.9-3.2,3.3-5.4,4.2
					c-2.2,0.9-4.9,1.4-8.2,1.4c-3.2,0-6-0.5-8.5-1.4c-2.5-0.9-4.4-2.2-5.7-3.8c-1.4-1.6-2.3-3.4-2.8-5.3c-0.5-1.9-0.8-4.8-0.8-8.5
					V46.3c0-4.4,0.6-7.8,1.8-10.3c1.2-2.5,3.1-4.4,5.8-5.8c2.7-1.3,5.8-2,9.2-2c4.3,0,7.8,0.8,10.5,2.4c2.8,1.6,4.7,3.8,5.8,6.4
					c1.1,2.7,1.7,6.4,1.7,11.3V54.9z M247,46.8v-3.6c0-2.6-0.1-4.2-0.4-5c-0.3-0.7-0.8-1.1-1.7-1.1c-1.1,0-1.7,0.3-2,1
					c-0.2,0.6-0.4,2.4-0.4,5.2v3.6H247z"/>
			</g>
			<g>
				<path class="st2" d="M303.7,34.3h-15.2c0-2.8,0-4.6-0.1-5.4c-0.1-0.7-0.4-1.4-0.9-1.9c-0.5-0.5-1.3-0.8-2.2-0.8
					c-0.8,0-1.4,0.2-1.9,0.7c-0.5,0.5-0.8,1.1-0.9,1.8c-0.1,0.7-0.1,2.3-0.1,4.5v9.7c0.8-1.6,1.9-2.9,3.4-3.7
					c1.5-0.8,3.4-1.2,5.6-1.2c2.8,0,5.2,0.8,7.4,2.3c2.1,1.5,3.5,3.3,4.1,5.4c0.6,2.1,0.9,4.9,0.9,8.5v4.8c0,4.3-0.2,7.4-0.5,9.5
					c-0.3,2.1-1.2,4-2.6,5.8c-1.4,1.8-3.4,3.1-5.8,4.1c-2.5,1-5.3,1.5-8.6,1.5c-4.1,0-7.4-0.6-10-1.7c-2.6-1.1-4.6-2.8-6-4.9
					c-1.4-2.1-2.2-4.3-2.5-6.7c-0.2-2.3-0.4-6.8-0.4-13.6v-8.4c0-7.2,0.1-12.1,0.3-14.5c0.2-2.4,1.1-4.7,2.6-6.9
					c1.5-2.2,3.6-3.8,6.3-4.9c2.6-1.1,5.7-1.6,9.1-1.6c4.3,0,7.7,0.7,10.5,2.1c2.7,1.4,4.7,3.3,5.9,5.8
					C303.1,27.3,303.7,30.5,303.7,34.3z M288.5,53.3c0-2.2-0.2-3.6-0.7-4.4c-0.5-0.8-1.3-1.2-2.3-1.2c-1.1,0-1.8,0.4-2.3,1.2
					c-0.5,0.8-0.7,2.3-0.7,4.5v11c0,2.7,0.2,4.4,0.7,5.3c0.5,0.8,1.2,1.2,2.3,1.2c0.7,0,1.3-0.3,2-1c0.7-0.6,1.1-2.4,1.1-5.2V53.3z"
					/>
				<g>
					<path class="st2" d="M321.1,34.3V33c0-2.7,0.3-4.5,0.8-5.4c0.6-0.9,1.4-1.4,2.6-1.4c1.2,0,2,0.4,2.6,1.2c0.6,0.8,0.8,2,0.8,3.7
						c0,0.9-0.2,1.9-0.5,3h14.7c0-0.5,0.1-1,0.1-1.4c0-4.6-1.5-8.4-4.6-11.4c-3.1-3-7.7-4.5-13.7-4.5c-3.1,0-5.7,0.5-7.9,1.5
						c-2.2,1-4,2.4-5.4,4.3c-1.4,1.9-2.2,3.8-2.6,5.8c-0.3,1.5-0.4,3.4-0.5,5.7H321.1z"/>
					<path class="st2" d="M339.7,43.9c0.9-1.9,1.5-3.8,1.9-5.6H326c-0.3,0.6-0.6,1.3-0.9,1.9c-1.9,3.8-7.7,13.9-17.6,30l0,8.7h33.4
						V68.6h-16.6C332.8,56,337.9,47.7,339.7,43.9z"/>
				</g>
				<path class="st2" d="M383.3,34.3h-15.2c0-2.8,0-4.6-0.1-5.4c-0.1-0.7-0.4-1.4-0.9-1.9c-0.5-0.5-1.3-0.8-2.2-0.8
					c-0.8,0-1.4,0.2-1.9,0.7c-0.5,0.5-0.8,1.1-0.9,1.8c-0.1,0.7-0.1,2.3-0.1,4.5v9.7c0.8-1.6,1.9-2.9,3.4-3.7
					c1.5-0.8,3.4-1.2,5.6-1.2c2.8,0,5.2,0.8,7.4,2.3c2.1,1.5,3.5,3.3,4.1,5.4c0.6,2.1,0.9,4.9,0.9,8.5v4.8c0,4.3-0.2,7.4-0.5,9.5
					c-0.3,2.1-1.2,4-2.6,5.8c-1.4,1.8-3.4,3.1-5.8,4.1c-2.5,1-5.3,1.5-8.6,1.5c-4.1,0-7.4-0.6-10-1.7c-2.6-1.1-4.6-2.8-6-4.9
					c-1.4-2.1-2.2-4.3-2.5-6.7c-0.2-2.3-0.4-6.8-0.4-13.6v-8.4c0-7.2,0.1-12.1,0.3-14.5c0.2-2.4,1.1-4.7,2.6-6.9
					c1.5-2.2,3.6-3.8,6.3-4.9c2.6-1.1,5.7-1.6,9.1-1.6c4.3,0,7.8,0.7,10.5,2.1c2.7,1.4,4.7,3.3,5.9,5.8
					C382.7,27.3,383.3,30.5,383.3,34.3z M368.1,53.3c0-2.2-0.2-3.6-0.7-4.4c-0.5-0.8-1.3-1.2-2.3-1.2c-1.1,0-1.8,0.4-2.3,1.2
					c-0.5,0.8-0.7,2.3-0.7,4.5v11c0,2.7,0.2,4.4,0.7,5.3c0.5,0.8,1.2,1.2,2.3,1.2c0.6,0,1.3-0.3,2-1c0.7-0.6,1.1-2.4,1.1-5.2V53.3z"
					/>
			</g>
			<g>
				<path class="st2" d="M19.1,76.2c2.2,0.6,9,2.5,14.8,6.1c5.5,3.5,10.1,8.5,11.9,10.7c1.6-1.9,5.4-6.3,9.9-9.7
					c5.6-4.2,12.4-6.5,17.2-7.2L73,21.4c-8.2-1.2-17.2-1.8-26.2-1.8l-0.9,0c-9.1,0-18.2,1-26.8,2L19.1,76.2z M29.8,55.5
					c1.2-0.9,2.4-1.3,3.6-1.3c0.4,0,0.7,0.1,0.9,0.3c0.2,0.2,0.5,0.7,0.8,1.5c0.2,0.5,0.4,1.1,0.7,1.9c0.6,1.8,1.1,2.6,1.6,2.6
					c0.4,0,1.8-2,4.3-6c2.4-3.8,4.5-7,6.2-9.6c2.4-3.6,4.3-6.3,5.5-7.9c1.3-1.6,2.4-2.8,3.4-3.7c0.9-0.7,2-1.3,3.5-1.7
					c1.4-0.4,3.2-0.7,5.3-0.8l0.4,1c-4.7,5.3-9.2,10.7-13.3,16.4c-4.1,5.6-7.9,11.4-11.4,17.4c-0.3,0.4-0.6,1.1-1,1.8
					c-1.2,2.4-2.9,3.6-5.1,3.6c-0.9,0-1.7-0.1-2.3-0.4c-0.6-0.3-1.2-0.7-1.7-1.4c-0.4-0.6-0.8-1.4-1.2-2.3c-0.4-0.9-0.8-2.3-1.3-4.1
					c0-0.1-0.1-0.2-0.1-0.4c-0.6-2-0.8-3.3-0.8-3.8C27.9,57.3,28.5,56.4,29.8,55.5z"/>
				<path class="st2" d="M61.5,16.5c-7.2-0.5-14.4-0.8-15.7-0.8c-1.3,0-8.7,0.2-15.9,0.9c-7.2,0.6-14.1,1.7-14.2,1.7l0,60.6
					c0,0,9,1.9,16.6,6.7c7.5,4.8,13.6,12.3,13.6,12.4c0.2-0.3,5-6.6,11.4-11.3c6.4-4.7,14-7.1,19.2-7.7c0-20.3,0.1-40.5,0.1-60.8
					C75.7,17.9,68.7,17,61.5,16.5z M73.8,76.9c-4.7,0.6-11.7,2.8-17.6,7.1C50.5,88.4,46,94.3,45.8,94.5c0,0-5.5-7-12.4-11.4
					c-6.9-4.4-15.2-6.2-15.2-6.2l0-56c9-1.1,18.4-2.1,27.7-2.1c9.3,0,18.9,0.6,28,1.9C73.9,39.4,73.9,58.2,73.8,76.9z"/>
			</g>
		</g>
	</g>
</g>
</svg>
